IAFF 6501--Spring 2024 Schedule – Hypothesis Testing 1
…
#load tidymodels
library(tidymodels)

# simulate the distribution
null_dist <- jobs_program |>
  specify(response = outcome, success = "unemployed") |>
  hypothesize(null = "point", p = c("unemployed" = 0.30, "employed" = 0.70)) |>
  generate(reps = 2000, type = "draw") |> 
  calculate(stat = "prop")

What is being stored in null_dist?

Response: outcome (factor)
Null Hypothesis: point
# A tibble: 2,000 × 2
   replicate  stat
       <dbl> <dbl>
 1         1 0.367
 2         2 0.2  
 3         3 0.283
 4         4 0.2  
 5         5 0.4  
 6         6 0.317
 7         7 0.3  
 8         8 0.333
 9         9 0.283
10        10 0.25 
# ℹ 1,990 more rows
…
